09/29/20 17:36

Problem 1 (12 points):
Score += 12

Problem 2 (12 points):
Score += 12

Problem 3 (6 points):
Score += 6

Problem 4 (15 points):
missing citations
Score += 12

Code Quality (5 points):
Score += 5

Total score: 47/50 = 94.0%

Great job!

-------------------------------------------------------------------------------

